Place,Sex,Name,BirthDate,Event,Division,WeightClassKg,Equipment,Team,State,BodyweightKg,Squat1Kg,Squat2Kg,Squat3Kg,Best3SquatKg,Bench1Kg,Bench2Kg,Bench3Kg,Best3BenchKg,Deadlift1Kg,Deadlift2Kg,Deadlift3Kg,Best3DeadliftKg,TotalKg,BirthYear
1,M,Bill Campbell,,B,M-M2,120+,Single-ply,NAVY,GA,153.2,,,,,185,275,-285,275,,,,,275,1957
1,M,Bill Campbell,,B,M-O,120+,Single-ply,NAVY,GA,153.2,,,,,185,275,-285,275,,,,,275,1957
1,M,Cherokee Widner,,B,MR-HS,74,Raw,ARMY,VA,73.6,,,,,-110,117.5,-127.5,117.5,,,,,117.5,1998
1,M,Christopher Richmond,,B,MR-M1,105,Raw,USAF,GA,103,,,,,132.5,152.5,155,155,,,,,155,1971
1,M,William Bauer,,B,MR-M4,74,Raw,USMC,FL,72.7,,,,,75,-80,80,80,,,,,80,1940
1,M,Lutz Anhaus,,B,MR-M4,93,Raw,ARMY,GA,91.6,,,,,95,102.5,-107.5,102.5,,,,,102.5,1945
1,M,Cherokee Widner,,B,MR-T2,74,Raw,ARMY,VA,73.6,,,,,-110,117.5,-127.5,117.5,,,,,117.5,1998
1,M,David Martin #1,1976-05-13,D,M-M1,120,Single-ply,USAF,IL,108.4,,,,,,,,,220,230,240,240,240,1976
1,M,Cherokee Widner,,D,MR-HS,74,Raw,ARMY,VA,73.6,,,,,,,,,160,172.5,-182.5,172.5,172.5,1998
1,M,Patrick McGrath,,D,MR-M1,120+,Raw,USAF,GA,132.8,,,,,,,,,227.5,245,-255,245,245,1999
1,M,David Martin #1,1976-05-13,D,MR-O,120,Raw,USAF,IL,108.4,,,,,,,,,220,230,240,240,240,1976
1,M,Cherokee Widner,,D,MR-T2,74,Raw,ARMY,VA,73.6,,,,,,,,,160,172.5,-182.5,172.5,172.5,1998
1,M,Juan Perez #11,,SBD,M-M1,93,Single-ply,ARMY,TX,86.1,120,127.5,135,135,82.5,92.5,-100,92.5,130,142.5,152.5,152.5,380,1967
1,M,David Martin #1,,SBD,M-M1,120,Single-ply,USAF,IL,108.4,210,-225,-225,210,120,130,-140,130,220,230,240,240,580,1976
1,M,Keyon Tarver,,SBD,M-O,93,Single-ply,ARMY,TX,92.1,240,252.5,260,260,155,160,-162.5,160,245,255,-260,255,675,1990
1,M,Luis Munoz #1,,SBD,M-O,120,Single-ply,USMC,TX,111.5,265,282.5,-300,282.5,220,-230,-230,220,207.5,-227.5,227.5,227.5,730,1987
1,M,Nicolas McLaughlin,,SBD,MR-C,74,Raw,USAF,CO,69.1,135,140,147.5,147.5,100,-102.5,,100,160,170,-175,170,417.5,1995
2,M,Nicholas Tankersley,,SBD,MR-C,74,Raw,USAF,FL,69.7,125,132.5,137.5,137.5,77.5,82.5,87.5,87.5,157.5,170,177.5,177.5,402.5,1988
1,M,Benny Le,,SBD,MR-Jr,66,Raw,USAF,TX,65,175,182.5,187.5,187.5,122.5,127.5,130,130,202.5,-210,-210,202.5,520,1992
1,M,Rodney Sutherland,,SBD,MR-Jr,74,Raw,ARMY,WA,73.5,190,200,-212.5,200,120,127.5,-130,127.5,197.5,215,-227.5,215,542.5,1994
2,M,Jared Theriault,,SBD,MR-Jr,74,Raw,ARMY,TX,72.2,-170,170,177.5,177.5,115,120,-125,120,182.5,192.5,200,200,497.5,1994
1,M,Wyatt Bronson,,SBD,MR-Jr,83,Raw,ARMY,TX,79.7,187.5,-192.5,,187.5,112.5,117.5,122.5,122.5,175,200,-230,200,510,1995
2,M,John Vaughan,,SBD,MR-Jr,83,Raw,USAF,MD,76.3,125,-147.5,-147.5,125,112.5,-122.5,-122.5,112.5,175,182.5,200,200,437.5,1995
1,M,Ryan Gray,,SBD,MR-Jr,93,Raw,ARMY,WI,92.2,250,270,-280,270,170,180,185,185,150,,,150,605,1995
2,M,Steven Hale,,SBD,MR-Jr,93,Raw,ARMY,TX,90,137.5,-145,147.5,147.5,100,107.5,-115,107.5,170,180,187.5,187.5,442.5,1992
1,M,Mason Bradford,,SBD,MR-Jr,105,Raw,USAF,TN,99.1,157.5,-172.5,-175,157.5,112.5,-120,-120,112.5,210,225,-235,225,495,1994
1,M,Donald Bigham,,SBD,MR-M1,83,Raw,ARMY,VA,82.3,242.5,262.5,-275,262.5,100,142.5,,142.5,245,272.5,-282.5,272.5,677.5,1972
2,M,Ken Bray,,SBD,MR-M1,83,Raw,ARMY,OH,80.1,182.5,192.5,205,205,120,125,-127.5,125,250,262.5,-272.5,262.5,592.5,1969
3,M,Brian Morrison,,SBD,MR-M1,83,Raw,USMC,FL,80.6,172.5,182.5,190,190,125,132.5,140,140,202.5,215,-227.5,215,545,1973
1,M,Ron Doiron,,SBD,MR-M1,105,Raw,ARMY,SC,102.2,182.5,190,-195,190,147.5,155,-165,155,192.5,200,-210,200,545,1967
1,M,Ned Johnson,,SBD,MR-M2,93,Raw,USMC,FL,92.1,-185,185,200,200,130,-137.5,137.5,137.5,185,200,210,210,547.5,1959
DQ,M,Michael Ricker,,SBD,MR-M2,120+,Raw,ARMY,FL,143,150,,,150,-190.5,-190.5,-190.5,,,,,,,1965
1,M,Bruce Barry,,SBD,MR-M3,105,Raw,USAF,PA,103.8,213,-221,-221,213,107.5,-115,-115,107.5,200,227.5,-232.5,227.5,548,1952
2,M,Bruce Barry,,SBD,MR-M3,105,Raw,USAF,PA,103.8,213,-221,-221,213,107.5,-115,-115,107.5,200,227.5,-232.5,227.5,548,1952
1,M,Rodney Herbison,,SBD,MR-M3,120,Raw,USAF,FL,112,122.5,-145,150,150,65,77.5,87.5,87.5,120,160,172.5,172.5,410,1954
1,M,Nicolas McLaughlin,,SBD,MR-MO,74,Raw,USAF,CO,69.1,135,140,147.5,147.5,100,-102.5,,100,160,170,-175,170,417.5,1995
1,M,Dean Valentini,,SBD,MR-O,59,Raw,USAF,FL,57.9,127.5,140,145,145,92.5,102.5,107.5,107.5,167.5,175,185,185,437.5,1989
1,M,Benny Le,,SBD,MR-O,66,Raw,USAF,TX,65,175,182.5,187.5,187.5,122.5,127.5,130,130,202.5,-210,-210,202.5,520,1992
2,M,Christopher Taylor,,SBD,MR-O,66,Raw,ARMY,SC,64.9,145,165,170,170,102.5,112.5,-120,112.5,187.5,197.5,205,205,487.5,1985
1,M,Matthew Sowards,,SBD,MR-O,74,Raw,USAF,OK,72.6,175,185,-190,185,145,-152.5,152.5,152.5,215,227.5,235,235,572.5,1979
2,M,Wilmer Serrano,,SBD,MR-O,74,Raw,USMC,SC,72.5,155,172.5,-185,172.5,127.5,140,147.5,147.5,192.5,207.5,227.5,227.5,547.5,1990
3,M,Rodney Sutherland,,SBD,MR-O,74,Raw,ARMY,WA,73.5,190,200,-212.5,200,120,127.5,-130,127.5,197.5,215,-227.5,215,542.5,1994
4,M,David Thompson,,SBD,MR-O,74,Raw,USAF,ND,72.3,-185,-200,200,200,120,-130,-130,120,207.5,220,-232.5,220,540,1983
5,M,Sam Cervantes,,SBD,MR-O,74,Raw,ARMY,TX,72.8,-155,-155,155,155,112.5,117.5,-122.5,117.5,185,197.5,-205,197.5,470,1987
1,M,Donald Bigham,,SBD,MR-O,83,Raw,ARMY,VA,82.3,242.5,262.5,-275,262.5,100,142.5,,142.5,245,272.5,-282.5,272.5,677.5,1972
2,M,Benjamin Rowe,,SBD,MR-O,83,Raw,ARMY,TX,82.7,227.5,237.5,245,245,155,-165,165,165,235,255,-262.5,255,665,1976
3,M,Ken Bray,,SBD,MR-O,83,Raw,ARMY,OH,80.1,182.5,192.5,205,205,120,125,-127.5,125,250,262.5,-272.5,262.5,592.5,1969
4,M,Harold Jarrell,,SBD,MR-O,83,Raw,ARMY,NC,81.6,155,-165,165,165,160,167.5,170,170,205,215,220,220,555,1981
5,M,John Vaughan,,SBD,MR-O,83,Raw,USAF,MD,76.3,125,-147.5,-147.5,125,112.5,-122.5,-122.5,112.5,175,182.5,200,200,437.5,1995
1,M,Michael Lear,,SBD,MR-O,93,Raw,USAF,UT,85,230,242.5,-250,242.5,137.5,142.5,145,145,282.5,300,312.5,312.5,700,1983
2,M,Antwan Byrd,,SBD,MR-O,93,Raw,ARMY,MO,88.2,-255,255,-270,255,145,155,160,160,260,267.5,272.5,272.5,687.5,1985
3,M,Michael Parrott,,SBD,MR-O,93,Raw,USAF,TX,86,230,245,-252.5,245,142.5,152.5,-160,152.5,262.5,272.5,-277.5,272.5,670,1985
4,M,Ryan Gray,,SBD,MR-O,93,Raw,ARMY,WI,92.2,250,270,-280,270,170,180,185,185,150,,,150,605,1995
5,M,Isaiah Gooley,,SBD,MR-O,93,Raw,USAF,MD,90.1,205,-220,-222.5,205,125,135,140,140,-220,230,242.5,242.5,587.5,1988
6,M,Donald Rogers,,SBD,MR-O,93,Raw,ARMY,WA,89.3,190,197.5,-205,197.5,125,-132.5,-137.5,125,242.5,260,-272.5,260,582.5,1992
1,M,Jonah Noeldner,,SBD,MR-O,105,Raw,USAF,CO,103.4,237.5,245,250,250,160,-167.5,-167.5,160,262.5,265,-267.5,265,675,1995
2,M,Benjamin Fowler,,SBD,MR-O,105,Raw,USMC,FL,97,182.5,205,220,220,147.5,160,165,165,205,227.5,232.5,232.5,617.5,1989
3,M,Mason Bradford,,SBD,MR-O,105,Raw,USAF,TN,99.1,157.5,-172.5,-175,157.5,112.5,-120,-120,112.5,210,225,-235,225,495,1994
4,M,John Baker,,SBD,MR-O,105,Raw,USAF,FL,93.8,125,135,145,145,97.5,105,-117.5,105,135,150,167.5,167.5,417.5,1977
1,M,Sean Herbison,,SBD,MR-O,120,Raw,USAF,FL,111.9,222.5,240,-250,240,140,150,-160,150,247.5,262.5,-272.5,262.5,652.5,1990
2,M,David Martin #1,,SBD,MR-O,120,Raw,USAF,IL,108.4,210,-225,-225,210,120,130,-140,130,220,230,240,240,580,1976
3,M,Quinton Quinn-Tanner,,SBD,MR-O,120,Raw,ARMY,TX,110.3,-155,155,165,165,135,140,145,145,220,242.5,252.5,252.5,562.5,1985
1,M,Bryan Dewey,,SBD,MR-O,120+,Raw,ARMY,CO,142.9,190,205,225,225,150,160,-170,160,250,265,275,275,660,1981
1,F,Jennylyn Carrasco,,SBD,F-O,63,Single-ply,ARMY,FL,62,155,162.5,-167.5,162.5,85,92.5,97.5,97.5,165,172.5,-182.5,172.5,432.5,1991
1,F,Eva Hambrick,,SBD,FR-Jr,72,Raw,USANG,WI,71.4,102.5,117.5,130,130,67.5,77.5,85,85,127.5,-140,,127.5,342.5,1995
1,F,Tina Robinson,,SBD,FR-M1,84+,Raw,USAF,AL,89.8,125,142.5,,142.5,97.5,107.5,110,110,150,170,180,180,432.5,1967
1,F,Amelia Johnson,,SBD,FR-M2,47,Raw,USMC,FL,46,62.5,70,75,75,35,40,-42.5,40,85,100,105,105,220,1965
1,F,Alyssa Perez,,SBD,FR-O,57,Raw,USAF,MD,54.6,-100,-100,100,100,45,50,52.5,52.5,122.5,-137.5,-137.5,122.5,275,1991
2,F,Ashlee Laing,,SBD,FR-O,57,Raw,USAF,MD,55.8,82.5,92.5,97.5,97.5,42.5,50,-55,50,87.5,100,107.5,107.5,255,1986
1,F,Jade Coleman,,SBD,FR-O,63,Raw,ARMY,TX,59.9,117.5,-127.5,-132.5,117.5,77.5,82.5,-85,82.5,145,152.5,160,160,360,1981
1,F,Janice Aninsman,,SBD,FR-O,72,Raw,USAF,DE,70.8,112.5,120,130,130,80,85,-87.5,85,142.5,147.5,152.5,152.5,367.5,1988
2,F,Jasmine Scott,,SBD,FR-O,72,Raw,NAVY,HI,70.9,127.5,130,-135,130,70,-75,75,75,125,132.5,-137.5,132.5,337.5,1982
3,F,Melissa Solomon,,SBD,FR-O,72,Raw,ARMY,SC,70.8,82.5,95,-102.5,95,65,70,-75,70,132.5,145,-155,145,310,1984
4,F,Ann Wilgosz,,SBD,FR-O,72,Raw,USAF,FL,65,90,100,105,105,40,47.5,-50,47.5,120,130,140,140,292.5,1985
1,F,Diana Lwanga,,SBD,FR-O,84,Raw,ARMY,TX,79.5,125,137.5,-142.5,137.5,77.5,82.5,-87.5,82.5,167.5,-182.5,-182.5,167.5,387.5,1982
2,F,Monica Saucedo,,SBD,FR-O,84,Raw,ARMY,MD,83.5,130,140,-152.5,140,62.5,65,67.5,67.5,130,142.5,152.5,152.5,360,1984
3,F,Sarah Sanchez,,SBD,FR-O,84,Raw,USAF,FL,72.9,100,110,125,125,70,77.5,-80,77.5,127.5,-137.5,-137.5,127.5,330,1985
4,F,April Spilde,,SBD,FR-O,84,Raw,USAF,MD,76.2,97.5,107.5,-117.5,107.5,70,77.5,-80,77.5,120,127.5,-137.5,127.5,312.5,1986
1,F,Tina Robinson,,SBD,FR-O,84+,Raw,USAF,AL,89.8,125,142.5,,142.5,97.5,107.5,110,110,150,170,180,180,432.5,1967
2,F,Patrina Bermudes,,SBD,FR-O,84+,Raw,ARMY,TX,87.6,145,152.5,-160,152.5,87.5,92.5,-95,92.5,142.5,152.5,-162.5,152.5,397.5,1978
1,M,David Martin #1,,BD,M-M1,120,Single-ply,USAF,IL,108.4,,,,,120,130,-140,130,220,230,240,240,370,1976
1,M,Cherokee Widner,,BD,MR-HS,74,Raw,ARMY,VA,73.6,,,,,-110,117.5,-127.5,117.5,160,172.5,-182.5,172.5,290,1998
1,M,Christopher Richmond,,BD,MR-M1,105,Raw,USAF,GA,103,,,,,132.5,152.5,155,155,167.5,185,195,195,350,1971
1,M,Patrick McGrath,,BD,MR-M1,120+,Raw,USAF,GA,132.8,,,,,142.5,152.5,-155,152.5,227.5,245,-255,245,397.5,1999
1,M,Michael Lloyd,,BD,MR-M2,120,Raw,USAF,GA,119.8,,,,,142.5,155,-165,155,182.5,200,212.5,212.5,367.5,1966
1,M,Anthony Ford,,BD,MR-M4,105,Raw,ARMY,AL,104.2,,,,,160,-177.5,177.5,177.5,205,227.5,,227.5,405,1969
1,M,Matthew Sowards,,BD,MR-O,74,Raw,USAF,OH,72.6,,,,,145,-152.5,152.5,152.5,215,227.5,235,235,387.5,1979
1,M,Christopher Richmond,,BD,MR-O,105,Raw,USAF,GA,103,,,,,132.5,152.5,155,155,167.5,185,195,195,350,1971
1,M,David Martin #1,,BD,MR-O,120,Raw,USAF,IL,108.4,,,,,120,130,-140,130,220,230,240,240,370,1976
1,M,Cherokee Widner,,BD,MR-T2,74,Raw,ARMY,VA,73.6,,,,,-110,117.5,-127.5,117.5,160,172.5,-182.5,172.5,290,1998
1,F,Dawn Macomber,,BD,F-PF,84+,Single-ply,ARMY,NH,86,,,,,67.5,72.5,-75,72.5,135,145,147.5,147.5,220,1971
1,F,Dawn Macomber,,BD,FR-M1,84+,Raw,ARMY,NH,86,,,,,67.5,72.5,-75,72.5,135,145,147.5,147.5,220,1971
1,F,Kimberly Francois,,BD,FR-O,63,Raw,USAF,IL,63,,,,,60,-65,-75,60,120,135,142.5,142.5,202.5,1986
