﻿BELGIUM DRUG FREE POWERLIFTING FEDERATION
BK. BENCH EQUIPPED 2016
                                                                                                                                           1é      2é      3é       4        points
Open
1                                           - 47,5 KG Van Casteren    Hanne                       V New Planet Fitness   17   T2   47,5    45      50      52,5              54,721
1                                           60 KG Dierckx             Liam      M                 Planet Fitness         21   JR   58,5    102,5   105     -111              87,623
1                                           67,5 KG El Mahassani      Waled     M     Bills Gym                          18   T3   60,5    80      85      90                72,54
1                                           67,5 KG Van den Abbeele   Tim       M                 Sanitas                28   SR   66,9    105                               76,829
1                                           67,5 KG Boland            Darren    M                 Sanitas                40   M1   65,5    110     -121    -121              82,06
1                                           75 KG Vandenbosch         Kevin     M                 Planet Fitness         20   JR   72,8    100     105     -110              71,453
1                                           75 KG Roels               Tom       M                 Sanitas                25   SR   68,7    110     115     117,5             83,966
1                                           82,5 KG Coolen            Cedric    M                 Sanitas                17   T2   80,3    95      100     105               66,276
1                                           82,5 KG Walravens         Aster     M                 Sanitas                19   T3   75,8    95      105     -120              69,195
2                                           82,5 KG Van Daele         Michael   M                 Sanitas                19   T3   77,8    95      105     -112,5            67,841
3                                           82,5 KG Noori             Noor      M                 KBBC                   18   T3   79,9    65      75      -85               47,513
1                                           82,5 KG Sudarminto        Indra     M                 Planet Fitness         25   SR   79,9    180     190     200,5    210      126,7
1                                           82,5 KG Kerwyn            Herve     M    Diksmuide                           71   M7   81,2    110     115     118      -120     73,579
1                                           90 KG Annaert             Gregg     M                 Planet Fitness         20   JR   87,7    102,5   110     -115     65,417
1                                           90 KG De Clercq           Kenneth   M                 Sanitas                24   SR   87,3    95      105     -112,5   62,633
1                                           90 KG Verbeke             Beny      M                 Isogym                 50   M3   89,5    125     132,5   137,5    80,754
1                                           100 KG Van Den Schilden   Stefan    M                 Planet Fitnes          31   SR   94,6    120     -135    -135     68,292
1                                           100 KG Vermote            Gianni    M                 Isogym                 43   M1   98,8    135     145     -150     80,765
1                                           110 KG Janssens           Roel      M                 Planet Fitness         27   SR   100,9   145     155     -160     85,545
1                                           110 KG Gheldof            Marcel    M                 Sanitas                50   M3   107,6   182,5   190              102,52
1                                           125 KG Kartal             Kadir     M                 Sanitas                19   T3   114,4   85      95      -102,5   50,53
Nat Record
Best Lifter
13 feb 2016 Merksem
