Division,WeightClassKg,Place,Name,Team,BodyweightKg,Best3SquatKg,Best3BenchKg,Best3DeadliftKg,TotalKg,Equipment,Event,Sex
Boys,51.71,1,Oscar Perez,Venus,51.26,138.35,74.84,140.61,353.8,Single-ply,SBD,M
Boys,51.71,2,Mohammad Ali,Mansfield Timberview,46.49,108.86,68.04,122.47,299.37,Single-ply,SBD,M
Boys,51.71,3,Arrington Holiday,Crowley,51.26,111.13,61.23,113.4,285.76,Single-ply,SBD,M
Boys,55.79,1,Julian Espinza,Venus,53.52,111.13,52.16,120.2,283.5,Single-ply,SBD,M
Boys,55.79,2,Houston Johnson,North Crowley,55.34,104.33,49.9,106.59,260.82,Single-ply,SBD,M
Boys,55.79,3,Ranjit Singh,Mansfield Summit,52.16,90.72,49.9,108.86,249.48,Single-ply,SBD,M
Boys,55.79,DQ,Aaron King,Mansfield Summit,55.79,129.27,,,,Single-ply,SBD,M
Boys,55.79,DQ,Clayton Watkins,Mansfield,55.79,97.52,,,,Single-ply,SBD,M
Boys,55.79,DQ,Jaylon Weston,Mansfield,54.2,97.52,,,,Single-ply,SBD,M
Boys,59.87,1,Kyle Van Pelt,Mansfield Timberview,59.19,181.44,106.59,192.78,480.81,Single-ply,SBD,M
Boys,59.87,2,Jorge Perez,Venus,58.06,165.56,81.65,149.69,396.89,Single-ply,SBD,M
Boys,59.87,3,Steven Ly,Mansfield Summit,59.65,129.27,65.77,136.08,331.12,Single-ply,SBD,M
Boys,67.13,1,Mathew Barrett,Mansfield Summit,64.18,197.31,102.06,215.46,514.83,Single-ply,SBD,M
Boys,67.13,2,Davonte Owens,Mansfield,65.32,188.24,104.33,190.51,483.08,Single-ply,SBD,M
Boys,67.13,3,Avery Carter,Mansfield Summit,61.46,176.9,99.79,192.78,469.47,Single-ply,SBD,M
Boys,67.13,4,Hayden Dibble,North Crowley,61.69,170.1,79.38,174.63,424.11,Single-ply,SBD,M
Boys,67.13,5,Dezmiun Henderson-Haynes,North Crowley,65.32,170.1,102.06,136.08,408.23,Single-ply,SBD,M
Boys,67.13,6,Michael Vega,Venus,66.68,154.22,95.25,154.22,403.7,Single-ply,SBD,M
Boys,67.13,7,Tim Chambers,North Crowley,63.73,170.1,81.65,127.01,378.75,Single-ply,SBD,M
Boys,67.13,8,Ian Lucas,Venus,64.86,142.88,83.91,147.42,374.21,Single-ply,SBD,M
Boys,67.13,9,Harley Scroggins,Alvarado,67.13,140.61,81.65,147.42,369.68,Single-ply,SBD,M
Boys,74.84,10,Sir Toliver,Mansfield Summit,67.36,113.4,77.11,142.88,333.39,Single-ply,SBD,M
Boys,67.13,11,Yadiel Rios,Crowley,62.82,95.25,77.11,136.08,308.44,Single-ply,SBD,M
Boys,74.84,1,Dajuan Webb,Mansfield Summit,72.35,179.17,106.59,192.78,478.54,Single-ply,SBD,M
Boys,74.84,2,Korey Caviness,Mansfield,70.08,167.83,104.33,158.76,430.91,Single-ply,SBD,M
Boys,74.84,3,Geoffrey Mochama,Mansfield Summit,68.04,156.49,90.72,181.44,428.64,Single-ply,SBD,M
Boys,74.84,4,Donovan Roper,Mansfield Timberview,71.89,163.29,104.33,151.95,419.57,Single-ply,SBD,M
Boys,74.84,5,Wictor Dos Anjos,Mansfield Summit,73.48,147.42,92.99,172.37,412.77,Single-ply,SBD,M
Boys,74.84,6,Chris Pitts,North Crowley,67.81,127.01,70.31,124.74,322.05,Single-ply,SBD,M
Boys,82.1,1,Nick Hall,Mansfield,76.2,188.24,108.86,204.12,501.22,Single-ply,SBD,M
Boys,82.1,2,Kendall Mays,Mansfield Timberview,81.19,181.44,111.13,183.7,476.27,Single-ply,SBD,M
Boys,82.1,3,Nate Collins,Mansfield Timberview,77.11,167.83,99.79,188.24,455.86,Single-ply,SBD,M
Boys,82.1,4,Paul Pemberton,Mansfield Summit,77.56,156.49,104.33,185.97,446.79,Single-ply,SBD,M
Boys,82.1,5,Garrick Orth,Mansfield Summit,79.15,167.83,86.18,165.56,419.57,Single-ply,SBD,M
Boys,82.1,6,Kyle Turley,Crowley,81.65,147.42,92.99,167.83,408.23,Single-ply,SBD,M
Boys,82.1,7,Jared Burchard,Alvarado,76.43,136.08,102.06,136.08,374.21,Single-ply,SBD,M
Boys,82.1,8,Kendall Chalk,Mansfield Lake Ridge,80.74,138.35,88.45,142.88,369.68,Single-ply,SBD,M
Boys,82.1,DQ,Corey Jones #5,Crowley,80.97,142.88,,,,Single-ply,SBD,M
Boys,89.81,1,Joseph Benton,Mansfield Summit,87.77,197.31,124.74,235.87,557.92,Single-ply,SBD,M
Boys,89.81,2,Vincent Ajaegbu,North Crowley,86.41,204.12,115.67,226.8,546.58,Single-ply,SBD,M
Boys,89.81,3,Chase Coleman,North Crowley,88.22,192.78,122.47,226.8,542.04,Single-ply,SBD,M
Boys,89.81,4,Andrew Lee,North Crowley,83.46,199.58,129.27,195.04,523.9,Single-ply,SBD,M
Boys,89.81,5,Michael Coleman #6,Mansfield Timberview,89.13,190.51,115.67,190.51,496.68,Single-ply,SBD,M
Boys,89.81,6,Dylan Briscoe,Mansfield Summit,89.36,183.7,115.67,188.24,487.61,Single-ply,SBD,M
Boys,89.81,7,Ayo Shogbonyo,Mansfield Summit,89.13,190.51,92.99,190.51,474,Single-ply,SBD,M
Boys,89.81,8,Alec Lara,Venus,85.5,156.49,92.99,156.49,405.97,Single-ply,SBD,M
Boys,89.81,9,Saul Nevarez,Mansfield Lake Ridge,83.69,111.13,65.77,147.42,324.32,Single-ply,SBD,M
Boys,89.81,DQ,Daniel Ramos,Mansfield Timberview,88.22,,,,,Single-ply,SBD,M
Boys,89.81,DQ,Jarion Ervin,Crowley,87.77,226.8,,,,Single-ply,SBD,M
Boys,99.79,1,Michael Clift,Venus,99.34,258.55,154.22,190.51,603.28,Single-ply,SBD,M
Boys,99.79,2,Valentine Odidi,Mansfield Timberview,98.2,201.85,122.47,238.14,562.45,Single-ply,SBD,M
Boys,109.77,3,Maurice Isuo,Mansfield,100.02,204.12,111.13,217.72,532.97,Single-ply,SBD,M
Boys,99.79,4,Jack Lechman,Mansfield Lake Ridge,95.25,181.44,111.13,204.12,496.68,Single-ply,SBD,M
Boys,99.79,5,Dacion Harris,Mansfield Timberview,99.34,181.44,120.2,181.44,483.08,Single-ply,SBD,M
Boys,99.79,6,Guadalupe Silva,Venus,93.67,181.44,104.33,181.44,467.2,Single-ply,SBD,M
Boys,99.79,7,Tielar Richards,North Crowley,90.72,181.44,102.06,181.44,464.93,Single-ply,SBD,M
Boys,99.79,8,Austin Gonzales,Alvarado,96.39,181.44,106.59,158.76,446.79,Single-ply,SBD,M
Boys,99.79,9,Kendall Dewitt,Mansfield Lake Ridge,97.75,151.95,92.99,192.78,437.72,Single-ply,SBD,M
Boys,99.79,10,DeMonte Washington,Crowley,91.63,145.15,79.38,145.15,369.68,Single-ply,SBD,M
Boys,109.77,1,Jerald McGlothin,Mansfield Summit,101.83,247.21,151.95,285.76,684.92,Single-ply,SBD,M
Boys,109.77,2,Gerred Johnson,Mansfield Summit,101.83,188.24,133.81,190.51,512.56,Single-ply,SBD,M
Boys,124.74,3,Noel Escalon,Mansfield,110,192.78,124.74,185.97,503.49,Single-ply,SBD,M
Boys,109.77,4,Josh Brown #3,North Crowley,102.74,199.58,117.93,181.44,498.95,Single-ply,SBD,M
Boys,109.77,5,Ju'Nathean McAllister,Mansfield,104.33,204.12,111.13,149.69,464.93,Single-ply,SBD,M
Boys,109.77,6,Silas McClathey,Alvarado,108.41,190.51,113.4,149.69,453.59,Single-ply,SBD,M
Boys,109.77,DQ,Jacory Davis,Crowley,103.19,,,,,Single-ply,SBD,M
Boys,109.77,DQ,Kimbal Roca,Venus,107.95,206.38,120.2,,,Single-ply,SBD,M
Boys,124.74,1,Myles Adams,Mansfield Summit,114.53,176.9,108.86,195.04,480.81,Single-ply,SBD,M
Boys,124.74,2,Eric Fedon,Mansfield Lake Ridge,116.57,176.9,106.59,181.44,464.93,Single-ply,SBD,M
Boys,124.74,3,Brownson Usen,Mansfield Timberview,117.03,142.88,120.2,192.78,455.86,Single-ply,SBD,M
Boys,124.74,4,Hakeer Kaymore,Mansfield Lake Ridge,115.21,165.56,106.59,181.44,453.59,Single-ply,SBD,M
Boys,124.74,5,Thomas Patterson,Mansfield Lake Ridge,120.66,151.95,79.38,183.7,415.04,Single-ply,SBD,M
Boys,124.74,DQ,Chip McCune,Mansfield,115.89,181.44,,,,Single-ply,SBD,M
Boys,124.74+,1,Robert Brown,North Crowley,154.67,183.7,136.08,238.14,557.92,Single-ply,SBD,M
Boys,124.74+,2,Bronsyn Smith,Mansfield Lake Ridge,127.91,219.99,102.06,210.92,532.97,Single-ply,SBD,M
Boys,124.74+,3,Bryce Johnson #1,Alvarado,126.78,204.12,127.01,167.83,498.95,Single-ply,SBD,M
Boys,124.74+,4,Logan Nuss,Alvarado,126.55,199.58,127.01,167.83,494.42,Single-ply,SBD,M
Boys,124.74+,5,Brandon Cross,Alvarado,141.52,190.51,127.01,176.9,494.42,Single-ply,SBD,M
Boys,124.74+,6,Simont Scott,Mansfield Lake Ridge,149.01,170.1,83.91,183.7,437.72,Single-ply,SBD,M
Boys,124.74+,7,Conner Robinson,Mansfield Summit,177.35,149.69,74.84,165.56,390.09,Single-ply,SBD,M
Boys,124.74+,8,Hunter Hoppe,Mansfield Lake Ridge,129.05,133.81,92.99,161.03,387.82,Single-ply,SBD,M
Boys,124.74+,DQ,Michael Ryan Pescka,Mansfield Timberview,137.89,219.99,,,,Single-ply,SBD,M
