Division,WeightClassKg,Place,Name,Team,BodyweightKg,Best3SquatKg,Best3BenchKg,Best3DeadliftKg,TotalKg,Equipment,Event,Sex
Boys,51.71,1,John Ortega,Mercedes,50.71,167.83,102.06,172.37,442.25,Single-ply,SBD,M
Boys,51.71,2,Fabian Garcia,Edinburg Idea College Prep,51.71,167.83,95.25,170.1,433.18,Single-ply,SBD,M
Boys,51.71,3,Martin Alaniz,Sharyland Pioneer,51.17,136.08,65.77,154.22,356.07,Single-ply,SBD,M
Boys,51.71,4,Uziel Vasquez,Edinburg Idea College Prep,51.71,147.42,72.57,129.27,349.27,Single-ply,SBD,M
Boys,51.71,5,Luis Garcia #9,Sharyland Pioneer,51.26,120.2,56.7,136.08,312.98,Single-ply,SBD,M
Boys,51.71,6,Victor Vasquez,Sharyland Pioneer,49.08,102.06,47.63,113.4,263.08,Single-ply,SBD,M
Boys,51.71,DQ,Jay Ortiz,Mission,51.71,,,,,Single-ply,SBD,M
Boys,55.79,1,Joey Rodriguez,Edinburg Idea College Prep,54.16,192.78,108.86,185.97,487.61,Single-ply,SBD,M
Boys,55.79,2,Elijah Rodriguez,Hidalgo Early College,54.61,124.74,72.57,129.27,326.59,Single-ply,SBD,M
Boys,55.79,3,Gabriel Chavez,Lyford,53.71,131.54,52.16,136.08,319.78,Single-ply,SBD,M
Boys,55.79,4,Harley Rios,Weslaco,55.79,122.47,77.11,120.2,319.78,Single-ply,SBD,M
Boys,55.79,DQ,Aldo Salazar,Santa Rosa,55.79,,,,,Single-ply,SBD,M
Boys,59.87,1,Elijah Wheeler,Edinburg Quest College Prep,59.51,204.12,106.59,199.58,510.29,Single-ply,SBD,M
Boys,59.87,2,Gabriel Perez,Donna North,59.06,133.81,79.38,172.37,385.55,Single-ply,SBD,M
Boys,59.87,3,Joey Mirelez,Edinburg Quest College Prep,59.33,102.06,77.11,151.95,331.12,Single-ply,SBD,M
Boys,59.87,4,Ramses Vasquez,Edinburg Idea College Prep,58.42,133.81,68.04,124.74,326.59,Single-ply,SBD,M
Boys,59.87,5,Balerio Andrade,Sharyland Pioneer,59.33,111.13,72.57,131.54,315.25,Single-ply,SBD,M
Boys,59.87,DQ,Zuriel Garica,Pharr Valley View,59.87,,,,,Single-ply,SBD,M
Boys,59.87,DQ,Elijah Zamora,Lyford,59.87,,,,,Single-ply,SBD,M
Boys,59.87,DQ,Randall de Leon,Lyford,59.87,,,,,Single-ply,SBD,M
Boys,67.13,1,Daniel Jeronimo,Hidalgo Early College,65.77,226.8,115.67,199.58,542.04,Single-ply,SBD,M
Boys,67.13,2,Eddie Luna,Mercedes,65.95,201.85,106.59,204.12,512.56,Single-ply,SBD,M
Boys,67.13,3,Marcelo Reyes,Weslaco,65.68,197.31,108.86,199.58,505.76,Single-ply,SBD,M
Boys,67.13,4,Joshua Martinez,Hidalgo Early College,63.96,192.78,113.4,188.24,494.42,Single-ply,SBD,M
Boys,67.13,5,Meshach Vasquez,Mercedes,66.32,170.1,120.2,183.7,474,Single-ply,SBD,M
Boys,67.13,6,Robert Rivera,La Villa,66.41,192.78,88.45,161.03,442.25,Single-ply,SBD,M
Boys,67.13,7,Tayler McClaugraty,Lyford,62.05,197.31,83.91,158.76,439.98,Single-ply,SBD,M
Boys,67.13,8,Antonio Vasquez,Edinburg Quest College Prep,66.41,156.49,90.72,183.7,430.91,Single-ply,SBD,M
Boys,67.13,9,Frank Mendoza,Mercedes,64.77,165.56,83.91,174.63,424.11,Single-ply,SBD,M
Boys,67.13,10,Tony Anzaldua,Mercedes,66.86,156.49,92.99,158.76,408.23,Single-ply,SBD,M
Boys,67.13,11,Marco Esparza,Hidalgo Early College,64.86,156.49,95.25,154.22,405.97,Single-ply,SBD,M
Boys,67.13,12,Daniel Acuna #2,Donna North,61.96,156.49,77.11,170.1,403.7,Single-ply,SBD,M
Boys,67.13,13,Joseph Cano,Monte Alto,65.41,145.15,90.72,154.22,390.09,Single-ply,SBD,M
Boys,67.13,14,Jerry Reyes,La Villa,65.5,149.69,88.45,129.27,367.41,Single-ply,SBD,M
Boys,67.13,15,Omar Ozornio,Mission,64.05,102.06,74.84,154.22,331.12,Single-ply,SBD,M
Boys,67.13,16,Wilmer Garcia,Donna North,63.78,124.74,63.5,120.2,308.44,Single-ply,SBD,M
Boys,67.13,17,Nathan Swanson,McAllen IDEA College Prep,64.14,70.31,45.36,102.06,217.72,Single-ply,SBD,M
Boys,67.13,DQ,Valente Rosas,Lyford,61.69,165.56,81.65,,,Single-ply,SBD,M
Boys,67.13,DQ,Sebastian Casares,Edinburg Quest College Prep,64.77,154.22,90.72,,,Single-ply,SBD,M
Boys,67.13,DQ,Dorian Gonzalez,Edinburg Idea College Prep,67.13,,,,,Single-ply,SBD,M
Boys,67.13,DQ,Carl Bridges,Santa Rosa,67.13,,,,,Single-ply,SBD,M
Boys,67.13,DQ,Aaron Lozano,Edinburg Quest College Prep,60.51,199.58,,,,Single-ply,SBD,M
Boys,74.84,1,Andrew Nevarez,Edinburg Idea College Prep,73.66,260.82,129.27,229.06,619.15,Single-ply,SBD,M
Boys,74.84,2,Leo Cuellar,Pharr Valley View,70.13,219.99,138.35,204.12,562.45,Single-ply,SBD,M
Boys,74.84,3,Adam Garza,Donna North,72.39,197.31,124.74,195.04,517.1,Single-ply,SBD,M
Boys,74.84,4,Jacob Martinez,Hidalgo Early College,71.4,183.7,111.13,183.7,478.54,Single-ply,SBD,M
Boys,74.84,5,Leonardo Perez,Mission,69.76,145.15,106.59,183.7,435.45,Single-ply,SBD,M
Boys,74.84,6,Jose Azua,Mission,67.77,145.15,90.72,167.83,403.7,Single-ply,SBD,M
Boys,74.84,7,Ryan Richter,Weslaco,71.3,142.88,90.72,158.76,392.36,Single-ply,SBD,M
Boys,74.84,8,Joe Alex,Weslaco,73.39,149.69,97.52,142.88,390.09,Single-ply,SBD,M
Boys,74.84,9,John Carlo Cruz,Edinburg Quest College Prep,70.76,149.69,83.91,145.15,378.75,Single-ply,SBD,M
Boys,74.84,10,Aaron Relko,Mission,68.76,136.08,86.18,145.15,367.41,Single-ply,SBD,M
Boys,74.84,11,Brandon Linton,Monte Alto,69.67,138.35,86.18,138.35,362.87,Single-ply,SBD,M
Boys,74.84,12,Enrique Garica,Pharr Valley View,74.12,131.54,77.11,129.27,337.93,Single-ply,SBD,M
Boys,74.84,13,Brave Munoz,Santa Rosa,74.57,120.2,68.04,140.61,328.85,Single-ply,SBD,M
Boys,74.84,DQ,Jesus Mendoza,Santa Rosa,74.84,,,,,Single-ply,SBD,M
Boys,74.84,DQ,Juan Montenegro,Edinburg Quest College Prep,74.84,,,,,Single-ply,SBD,M
Boys,74.84,DQ,Anthony Villareal,Pharr Valley View,74.84,,,,,Single-ply,SBD,M
Boys,74.84,DQ,Skyler Alaniz,Santa Rosa,69.04,113.4,81.65,,,Single-ply,SBD,M
Boys,74.84,DQ,Martin Vargas,Hidalgo Early College,68.04,156.49,,,,Single-ply,SBD,M
Boys,82.1,1,Brandon Adame,Mercedes,79.02,231.33,113.4,226.8,571.53,Single-ply,SBD,M
Boys,82.1,2,Felipe Ortega,La Villa,79.65,217.72,113.4,192.78,523.9,Single-ply,SBD,M
Boys,82.1,3,Andrew Torres,Sharyland Pioneer,80.56,192.78,133.81,176.9,503.49,Single-ply,SBD,M
Boys,82.1,4,Justin Trevino,Donna North,76.11,185.97,106.59,197.31,489.88,Single-ply,SBD,M
Boys,82.1,5,Martin Rabanales,Edinburg Quest College Prep,81.92,206.38,111.13,170.1,487.61,Single-ply,SBD,M
Boys,82.1,6,Gus Vasquez,Donna North,80.47,188.24,108.86,188.24,485.34,Single-ply,SBD,M
Boys,82.1,7,Domingo Rasse,Donna North,79.92,185.97,97.52,158.76,442.25,Single-ply,SBD,M
Boys,82.1,8,Micheal Zamora,Pharr Valley View,79.02,165.56,88.45,181.44,435.45,Single-ply,SBD,M
Boys,82.1,9,Emiliano Sanchez,Edinburg Idea College Prep,76.11,161.03,97.52,161.03,419.57,Single-ply,SBD,M
Boys,82.1,10,Leonardo Salazar,Monte Alto,79.65,147.42,99.79,172.37,419.57,Single-ply,SBD,M
Boys,82.1,11,Caleb Garza,Santa Rosa,80.01,149.69,90.72,154.22,394.63,Single-ply,SBD,M
Boys,82.1,12,Ozie Reyes,Hidalgo Early College,80.1,158.76,90.72,142.88,392.36,Single-ply,SBD,M
Boys,82.1,13,Humberto Martinez,Donna North,76.2,138.35,79.38,170.1,387.82,Single-ply,SBD,M
Boys,82.1,14,Emiliano Soliz,McAllen IDEA College Prep,77.66,117.93,70.31,124.74,312.98,Single-ply,SBD,M
Boys,82.1,DQ,Alex Menoza,Edinburg Idea College Prep,82.1,,,,,Single-ply,SBD,M
Boys,82.1,DQ,Coy Burrows,Sharyland Pioneer,75.93,222.26,,,,Single-ply,SBD,M
Boys,89.81,1,Obed Hernandez,Sharyland Pioneer,88.99,283.5,167.83,249.48,700.8,Single-ply,SBD,M
Boys,89.81,2,Simon Fernandez,Pharr Valley View,89.18,256.28,145.15,244.94,646.37,Single-ply,SBD,M
Boys,89.81,3,Gonzalo Perez,Mission,85.73,215.46,129.27,206.38,551.11,Single-ply,SBD,M
Boys,89.81,4,Jose Flores #5,Pharr Valley View,87.91,213.19,113.4,208.65,535.24,Single-ply,SBD,M
Boys,89.81,5,John Bustos,Donna North,85.55,183.7,111.13,183.7,478.54,Single-ply,SBD,M
Boys,89.81,6,Ethan de la Garza,Santa Rosa,88.54,195.04,88.45,181.44,464.93,Single-ply,SBD,M
Boys,89.81,7,Ezekiel Cuadros,Mission,86.73,170.1,104.33,179.17,453.59,Single-ply,SBD,M
Boys,89.81,8,Juan Villarreal #3,Sharyland Pioneer,84.82,156.49,106.59,176.9,439.98,Single-ply,SBD,M
Boys,89.81,9,Jorge Terrazas,Santa Rosa,86.91,165.56,83.91,167.83,417.3,Single-ply,SBD,M
Boys,89.81,10,Moses Ochoa,Donna North,87.82,142.88,92.99,165.56,401.43,Single-ply,SBD,M
Boys,89.81,11,Roel Salinas,McAllen IDEA College Prep,88.36,142.88,68.04,149.69,360.61,Single-ply,SBD,M
Boys,89.81,12,Eduardo Arroyo,Edinburg Quest College Prep,85.37,122.47,81.65,149.69,353.8,Single-ply,SBD,M
Boys,89.81,13,Gael Garcia,McAllen IDEA College Prep,89.72,92.99,72.57,142.88,308.44,Single-ply,SBD,M
Boys,89.81,DQ,Alejandro DeLaGarza,Hidalgo Early College,88.72,142.88,,,,Single-ply,SBD,M
Boys,99.79,1,Dylan Earhart,Hidalgo Early College,97.89,283.5,163.29,244.94,691.73,Single-ply,SBD,M
Boys,99.79,2,Esteban Guerrero,Donna North,90.26,213.19,124.74,219.99,557.92,Single-ply,SBD,M
Boys,99.79,3,Dustin Earhart,Hidalgo Early College,98.34,206.38,122.47,206.38,535.24,Single-ply,SBD,M
Boys,99.79,4,Adrian Villegas,Mission,95.89,192.78,108.86,204.12,505.76,Single-ply,SBD,M
Boys,99.79,5,Abrahan Rodriguez,Weslaco,99.16,210.92,127.01,151.95,489.88,Single-ply,SBD,M
Boys,99.79,6,Leo Pena,Weslaco,92.17,183.7,124.74,174.63,483.08,Single-ply,SBD,M
Boys,99.79,7,Jordan Vasquez,Hidalgo Early College,97.61,183.7,122.47,165.56,471.74,Single-ply,SBD,M
Boys,99.79,8,Raul Luna,Weslaco,92.99,174.63,102.06,170.1,446.79,Single-ply,SBD,M
Boys,99.79,9,Ricardo Barreto,McAllen IDEA College Prep,95.71,115.67,61.23,142.88,319.78,Single-ply,SBD,M
Boys,99.79,10,Alejandro Mustafat,McAllen IDEA College Prep,91.08,102.06,72.57,124.74,299.37,Single-ply,SBD,M
Boys,99.79,DQ,Emmanule Cepeda,Lyford,99.79,,,,,Single-ply,SBD,M
Boys,99.79,DQ,Henry Rocha,Lyford,99.79,,,,,Single-ply,SBD,M
Boys,109.77,1,Joey Ramirez,La Villa,107.23,310.71,201.85,210.92,723.48,Single-ply,SBD,M
Boys,109.77,2,Ramon Cuellar,Pharr Valley View,106.59,265.35,154.22,213.19,632.76,Single-ply,SBD,M
Boys,109.77,3,Angel Gutierrez,Pharr Valley View,108.59,244.94,151.95,226.8,623.69,Single-ply,SBD,M
Boys,109.77,4,Eric Torres #3,Sharyland Pioneer,103.33,242.67,145.15,215.46,603.28,Single-ply,SBD,M
Boys,109.77,5,Jovani Naveja,Weslaco,104.96,231.33,154.22,213.19,598.74,Single-ply,SBD,M
Boys,109.77,6,Jarek Gonzalez,Hidalgo Early College,107.68,229.06,131.54,204.12,564.72,Single-ply,SBD,M
Boys,109.77,7,Saul Hernandez,Hidalgo Early College,109.77,213.19,136.08,204.12,553.38,Single-ply,SBD,M
Boys,109.77,8,Eddie Alanis,Mission,105.87,188.24,102.06,204.12,494.42,Single-ply,SBD,M
Boys,109.77,9,Carlos Olmedo #2,Mercedes,101.97,183.7,111.13,197.31,492.15,Single-ply,SBD,M
Boys,109.77,10,Daniel Robledo,Weslaco,109.68,172.37,111.13,165.56,449.06,Single-ply,SBD,M
Boys,109.77,11,David Garcia #16,Weslaco,108.86,83.91,65.77,102.06,251.74,Single-ply,SBD,M
Boys,124.74,1,Steven Alvarez,Mission,122.2,276.69,170.1,247.21,694,Single-ply,SBD,M
Boys,124.74,2,Enrique Guajardo,Pharr Valley View,111.77,278.96,149.69,256.28,684.92,Single-ply,SBD,M
Boys,124.74,3,Raul Martinez,Weslaco,120.66,267.62,174.63,215.46,657.71,Single-ply,SBD,M
Boys,124.74,4,Juan Alvarado,Mercedes,121.83,260.82,142.88,204.12,607.81,Single-ply,SBD,M
Boys,124.74,5,Orlando Camacho,Sharyland Pioneer,117.12,204.12,151.95,213.19,569.26,Single-ply,SBD,M
Boys,124.74,6,Zeke Negrete,Weslaco,117.39,192.78,163.29,199.58,555.65,Single-ply,SBD,M
Boys,124.74,7,Thomas Santillan,Weslaco,120.47,217.72,113.4,204.12,535.24,Single-ply,SBD,M
Boys,124.74,8,Ryan Garcia #1,Edinburg Idea College Prep,121.65,195.04,97.52,201.85,494.42,Single-ply,SBD,M
Boys,124.74,9,DeMarco Wolf,Edinburg Quest College Prep,123.1,154.22,113.4,172.37,439.98,Single-ply,SBD,M
Boys,124.74,DQ,Dominick Buentello,Mission,124.74,,,,,Single-ply,SBD,M
Boys,124.74+,1,David Garza,Hidalgo Early College,140.25,226.8,131.54,181.44,539.77,Single-ply,SBD,M
Boys,124.74+,2,Chris Rojas,Santa Rosa,143.79,199.58,113.4,204.12,517.1,Single-ply,SBD,M
